[
    {
        "name": "ETRANGER"
    },
    {
        "name": "INCONNU"
    },
    {
        "name": "Non définie"
    },
    {
        "name": "PRIVEE"
    },
    {
        "name": "PUBLIQUE"
    },
    {
        "name": "RURAL"
    },
    {
        "name": "RURALE"
    },
    {
        "name": "URBAIN"
    },
    {
        "name": "URBAINE"
    }
]